{
  "implemented": true,
  "name": "Gligar",
  "nationalPokedexNumber": 207,
  "primaryType": "ground",
  "secondaryType": "flying",
  "abilities": [
    "hypercutter",
    "sandveil",
    "h:immunity"
  ],
  "baseStats": {
    "hp": 65,
    "attack": 75,
    "defence": 105,
    "special_attack": 35,
    "special_defence": 65,
    "speed": 85
  },
  "catchRate": 60,
  "maleRatio": 0.5,
  "shoulderMountable": false,
  "baseExperienceYield": 86,
  "experienceGroup": "medium_slow",
  "eggCycles": 20,
  "eggGroups": [
    "bug"
  ],
  "moves": [
    "1:poisonsting",
    "4:sandattack",
    "7:harden",
    "10:knockoff",
    "13:quickattack",
    "16:furycutter",
    "19:feintattack",
    "22:acrobatics",
    "27:slash",
    "30:uturn",
    "35:screech",
    "40:xscissor",
    "45:skyuppercut",
    "50:swordsdance",
    "55:guillotine",
    "egg:agility",
    "egg:batonpass",
    "egg:counter",
    "egg:crosspoison",
    "egg:doubleedge",
    "egg:feint",
    "egg:metalclaw",
    "egg:nightslash",
    "egg:poisontail",
    "egg:powertrick",
    "egg:razorwind",
    "egg:rockclimb",
    "egg:sandtomb",
    "egg:wingattack",
    "tm:acrobatics",
    "tm:aerialace",
    "tm:attract",
    "tm:brickbreak",
    "tm:bulldoze",
    "tm:captivate",
    "tm:confide",
    "tm:cut",
    "tm:darkpulse",
    "tm:defog",
    "tm:dig",
    "tm:doubleteam",
    "tm:earthquake",
    "tm:endure",
    "tm:facade",
    "tm:falseswipe",
    "tm:fling",
    "tm:frustration",
    "tm:hiddenpower",
    "tm:honeclaws",
    "tm:irontail",
    "tm:naturalgift",
    "tm:payback",
    "tm:poisonjab",
    "tm:protect",
    "tm:raindance",
    "tm:rest",
    "tm:return",
    "tm:rockpolish",
    "tm:rockslide",
    "tm:rocksmash",
    "tm:rocktomb",
    "tm:roost",
    "tm:round",
    "tm:sandstorm",
    "tm:secretpower",
    "tm:sleeptalk",
    "tm:sludgebomb",
    "tm:stealthrock",
    "tm:steelwing",
    "tm:stoneedge",
    "tm:strength",
    "tm:strugglebug",
    "tm:substitute",
    "tm:sunnyday",
    "tm:swagger",
    "tm:swordsdance",
    "tm:taunt",
    "tm:thief",
    "tm:torment",
    "tm:toxic",
    "tm:uturn",
    "tm:venoshock",
    "tm:xscissor",
    "tutor:aquatail",
    "tutor:attract",
    "tutor:bugbite",
    "tutor:counter",
    "tutor:curse",
    "tutor:cut",
    "tutor:darkpulse",
    "tutor:defog",
    "tutor:detect",
    "tutor:doubleedge",
    "tutor:doubleteam",
    "tutor:dreameater",
    "tutor:earthpower",
    "tutor:endure",
    "tutor:feint",
    "tutor:feintattack",
    "tutor:frustration",
    "tutor:furycutter",
    "tutor:guillotine",
    "tutor:harden",
    "tutor:headbutt",
    "tutor:hiddenpower",
    "tutor:irontail",
    "tutor:knockoff",
    "tutor:metalclaw",
    "tutor:mimic",
    "tutor:poisonsting",
    "tutor:protect",
    "tutor:quickattack",
    "tutor:razorwind",
    "tutor:rest",
    "tutor:return",
    "tutor:rockslide",
    "tutor:rocksmash",
    "tutor:roost",
    "tutor:sandattack",
    "tutor:sandstorm",
    "tutor:screech",
    "tutor:slash",
    "tutor:sleeptalk",
    "tutor:sludgebomb",
    "tutor:snore",
    "tutor:stealthrock",
    "tutor:strength",
    "tutor:substitute",
    "tutor:sunnyday",
    "tutor:swagger",
    "tutor:swift",
    "tutor:swordsdance",
    "tutor:tailwind",
    "tutor:thief",
    "tutor:throatchop",
    "tutor:toxic",
    "tutor:wingattack"
  ],
  "labels": [
    "gen2"
  ],
  "pokedex": [
    "cobblemon.species.gligar.desc"
  ],
  "evolutions": [
    {
      "id": "gligar_gliscor",
      "variant": "level_up",
      "result": "gliscor",
      "consumeHeldItem": true,
      "learnableMoves": [],
      "requirements": [
        {
          "variant": "held_item",
          "itemCondition": "cobblemon:razor_fang"
        },
        {
          "variant": "time_range",
          "range": "night"
        }
      ]
    }
  ],
  "baseScale": 0.9,
  "hitbox": {
    "width": 0.7,
    "height": 0.9,
    "fixed": false
  },
  "baseFriendship": 70,
  "evYield": {
    "hp": 0,
    "attack": 0,
    "defence": 1,
    "special_attack": 0,
    "special_defence": 0,
    "speed": 0
  },
  "height": 11,
  "weight": 648,
  "aspects": [],
  "cannotDynamax": false
}