{
  "implemented": true,
  "name": "Stantler",
  "nationalPokedexNumber": 234,
  "primaryType": "normal",
  "abilities": [
    "intimidate",
    "frisk",
    "h:sapsipper"
  ],
  "baseStats": {
    "hp": 73,
    "attack": 95,
    "defence": 62,
    "special_attack": 85,
    "special_defence": 65,
    "speed": 85
  },
  "behaviour": {
    "resting": {
      "canSleep": true,
      "willSleepOnBed": false,
      "depth": "normal",
      "light": "0-4"
    }
  },
  "catchRate": 45,
  "maleRatio": 0.5,
  "shoulderMountable": false,
  "baseExperienceYield": 163,
  "experienceGroup": "slow",
  "eggCycles": 20,
  "eggGroups": [
    "field"
  ],
  "drops": {
    "amount": "1",
    "entries": [
      {
        "item": "minecraft:leather",
        "percentage": 50
      }
    ]
  },
  "moves": [
    "1:mefirst",
    "1:tackle",
    "3:leer",
    "7:astonish",
    "10:hypnosis",
    "13:stomp",
    "16:sandattack",
    "21:psyshieldbash",
    "21:takedown",
    "23:confuseray",
    "27:calmmind",
    "32:roleplay",
    "37:zenheadbutt",
    "43:jumpkick",
    "49:imprison",
    "50:captivate",
    "55:doubleedge",
    "egg:bite",
    "egg:disable",
    "egg:doublekick",
    "egg:extrasensory",
    "egg:mefirst",
    "egg:megahorn",
    "egg:mudsport",
    "egg:psychup",
    "egg:psyshieldbash",
    "egg:rage",
    "egg:spite",
    "egg:swagger",
    "egg:thrash",
    "egg:zenheadbutt",
    "tm:agility",
    "tm:attract",
    "tm:bodyslam",
    "tm:bulldoze",
    "tm:calmmind",
    "tm:captivate",
    "tm:chargebeam",
    "tm:confide",
    "tm:confuseray",
    "tm:dig",
    "tm:doubleteam",
    "tm:dreameater",
    "tm:earthpower",
    "tm:earthquake",
    "tm:endure",
    "tm:energyball",
    "tm:facade",
    "tm:flash",
    "tm:frustration",
    "tm:gigaimpact",
    "tm:helpinghand",
    "tm:hiddenpower",
    "tm:hyperbeam",
    "tm:imprison",
    "tm:irontail",
    "tm:lightscreen",
    "tm:naturalgift",
    "tm:protect",
    "tm:psybeam",
    "tm:psychic",
    "tm:psychup",
    "tm:psyshock",
    "tm:raindance",
    "tm:reflect",
    "tm:rest",
    "tm:retaliate",
    "tm:return",
    "tm:roar",
    "tm:round",
    "tm:scaryface",
    "tm:secretpower",
    "tm:shadowball",
    "tm:shockwave",
    "tm:skillswap",
    "tm:sleeptalk",
    "tm:solarbeam",
    "tm:storedpower",
    "tm:substitute",
    "tm:sunnyday",
    "tm:swagger",
    "tm:swift",
    "tm:takedown",
    "tm:terablast",
    "tm:thief",
    "tm:thunder",
    "tm:thunderbolt",
    "tm:thunderwave",
    "tm:toxic",
    "tm:trailblaze",
    "tm:trick",
    "tm:trickroom",
    "tm:wildcharge",
    "tm:workup",
    "tm:zenheadbutt",
    "tutor:attract",
    "tutor:bite",
    "tutor:bodyslam",
    "tutor:bounce",
    "tutor:confuseray",
    "tutor:curse",
    "tutor:detect",
    "tutor:disable",
    "tutor:doubleedge",
    "tutor:doubleteam",
    "tutor:dreameater",
    "tutor:earthquake",
    "tutor:endure",
    "tutor:flash",
    "tutor:frustration",
    "tutor:gravity",
    "tutor:headbutt",
    "tutor:hiddenpower",
    "tutor:hypnosis",
    "tutor:irontail",
    "tutor:lastresort",
    "tutor:leer",
    "tutor:lightscreen",
    "tutor:magicroom",
    "tutor:mimic",
    "tutor:mudslap",
    "tutor:nightmare",
    "tutor:protect",
    "tutor:psychic",
    "tutor:psychup",
    "tutor:raindance",
    "tutor:reflect",
    "tutor:rest",
    "tutor:return",
    "tutor:roar",
    "tutor:roleplay",
    "tutor:sandattack",
    "tutor:shockwave",
    "tutor:signalbeam",
    "tutor:skillswap",
    "tutor:sleeptalk",
    "tutor:snore",
    "tutor:spite",
    "tutor:stomp",
    "tutor:substitute",
    "tutor:suckerpunch",
    "tutor:sunnyday",
    "tutor:swagger",
    "tutor:swift",
    "tutor:tackle",
    "tutor:takedown",
    "tutor:thief",
    "tutor:throatchop",
    "tutor:thunderwave",
    "tutor:toxic",
    "tutor:uproar",
    "tutor:zenheadbutt"
  ],
  "labels": [
    "gen2"
  ],
  "pokedex": [
    "cobblemon.species.stantler.desc"
  ],
  "evolutions": [
    {
      "id": "stantler_wyrdeer",
      "variant": "level_up",
      "result": "wyrdeer",
      "consumeHeldItem": false,
      "learnableMoves": [],
      "requirements": [
        {
          "variant": "use_move",
          "move": "psyshieldbash",
          "amount": 20
        }
      ]
    }
  ],
  "baseScale": 1.2,
  "hitbox": {
    "width": 0.8,
    "height": 1.65,
    "fixed": false
  },
  "baseFriendship": 70,
  "evYield": {
    "hp": 0,
    "attack": 1,
    "defence": 0,
    "special_attack": 0,
    "special_defence": 0,
    "speed": 0
  },
  "height": 14,
  "weight": 712,
  "aspects": [],
  "cannotDynamax": false
}