{
  "implemented": true,
  "name": "Whimsicott",
  "nationalPokedexNumber": 547,
  "primaryType": "grass",
  "secondaryType": "fairy",
  "abilities": [
    "prankster",
    "infiltrator",
    "h:chlorophyll"
  ],
  "baseStats": {
    "hp": 60,
    "attack": 67,
    "defence": 85,
    "special_attack": 77,
    "special_defence": 75,
    "speed": 116
  },
  "catchRate": 75,
  "maleRatio": 0.5,
  "shoulderMountable": false,
  "baseExperienceYield": 168,
  "experienceGroup": "medium_fast",
  "eggCycles": 20,
  "eggGroups": [
    "fairy",
    "grass"
  ],
  "behaviour": {
    "moving": {
      "fly": {
        "canFly": true
      }
    }
  },
  "moves": [
    "1:absorb",
    "1:charm",
    "1:cottonguard",
    "1:cottonspore",
    "1:endeavor",
    "1:energyball",
    "1:fairywind",
    "1:gigadrain",
    "1:growth",
    "1:gust",
    "1:helpinghand",
    "1:hurricane",
    "1:leechseed",
    "1:megadrain",
    "1:memento",
    "1:moonblast",
    "1:poisonpowder",
    "1:razorleaf",
    "1:solarbeam",
    "1:stunspore",
    "1:sunnyday",
    "1:tailwind",
    "tm:attract",
    "tm:beatup",
    "tm:charm",
    "tm:confide",
    "tm:dazzlinggleam",
    "tm:doubleteam",
    "tm:dreameater",
    "tm:encore",
    "tm:endure",
    "tm:energyball",
    "tm:facade",
    "tm:faketears",
    "tm:flash",
    "tm:fling",
    "tm:frustration",
    "tm:gigadrain",
    "tm:gigaimpact",
    "tm:grassknot",
    "tm:grassyterrain",
    "tm:helpinghand",
    "tm:hiddenpower",
    "tm:hurricane",
    "tm:hyperbeam",
    "tm:lightscreen",
    "tm:mistyterrain",
    "tm:naturepower",
    "tm:playrough",
    "tm:protect",
    "tm:psychic",
    "tm:rest",
    "tm:return",
    "tm:round",
    "tm:safeguard",
    "tm:secretpower",
    "tm:seedbomb",
    "tm:shadowball",
    "tm:sleeptalk",
    "tm:snore",
    "tm:solarbeam",
    "tm:substitute",
    "tm:sunnyday",
    "tm:swagger",
    "tm:swift",
    "tm:taunt",
    "tm:thief",
    "tm:toxic",
    "tm:trickroom",
    "tm:uturn",
    "tutor:beatup",
    "tutor:covet",
    "tutor:defog",
    "tutor:endeavor",
    "tutor:gigadrain",
    "tutor:grassyglide",
    "tutor:helpinghand",
    "tutor:knockoff",
    "tutor:seedbomb",
    "tutor:sleeptalk",
    "tutor:snore",
    "tutor:swagger",
    "tutor:tailwind",
    "tutor:worryseed"
  ],
  "labels": [
    "gen5"
  ],
  "pokedex": [
    "cobblemon.species.whimsicott.desc"
  ],
  "preEvolution": "cottonee",
  "evolutions": [],
  "baseScale": 0.85,
  "hitbox": {
    "width": 0.8,
    "height": 0.8,
    "fixed": false
  },
  "baseFriendship": 50,
  "evYield": {
    "hp": 0,
    "attack": 0,
    "defence": 0,
    "special_attack": 0,
    "special_defence": 0,
    "speed": 2
  },
  "height": 7,
  "weight": 66,
  "aspects": [],
  "cannotDynamax": false
}