{
  "implemented": true,
  "name": "Rhyperior",
  "nationalPokedexNumber": 464,
  "primaryType": "ground",
  "secondaryType": "rock",
  "abilities": [
    "lightningrod",
    "solidrock",
    "h:reckless"
  ],
  "baseStats": {
    "hp": 115,
    "attack": 140,
    "defence": 130,
    "special_attack": 55,
    "special_defence": 55,
    "speed": 40
  },
  "catchRate": 30,
  "maleRatio": 0.5,
  "shoulderMountable": false,
  "baseExperienceYield": 268,
  "experienceGroup": "slow",
  "eggCycles": 20,
  "eggGroups": [
    "monster",
    "field"
  ],
  "drops": {
    "amount": "1",
    "entries": [
      {
        "item": "cobblemon:protector",
        "percentage": 10
      }
    ]
  },
  "moves": [
    "1:bulldoze",
    "1:furyattack",
    "1:hammerarm",
    "1:hornattack",
    "1:horndrill",
    "1:megahorn",
    "1:poisonjab",
    "1:rockwrecker",
    "1:scaryface",
    "1:smackdown",
    "1:stomp",
    "1:tackle",
    "1:tailwhip",
    "13:smackdown",
    "15:hornattack",
    "17:stomp",
    "19:scaryface",
    "20:scaryface",
    "21:bulldoze",
    "21:scaryface",
    "23:rockblast",
    "25:chipaway",
    "25:rockblast",
    "25:stomp",
    "29:rockblast",
    "30:chipaway",
    "30:rockblast",
    "33:drillrun",
    "33:takedown",
    "35:drillrun",
    "37:horndrill",
    "37:takedown",
    "40:takedown",
    "41:stoneedge",
    "41:takedown",
    "42:hammerarm",
    "45:stoneedge",
    "47:drillrun",
    "47:earthquake",
    "48:earthquake",
    "49:earthquake",
    "54:stoneedge",
    "55:megahorn",
    "56:stoneedge",
    "57:megahorn",
    "61:megahorn",
    "61:rockwrecker",
    "62:earthquake",
    "68:horndrill",
    "71:horndrill",
    "75:rockwrecker",
    "77:megahorn",
    "86:rockwrecker",
    "tm:attract",
    "tm:avalanche",
    "tm:blizzard",
    "tm:bodypress",
    "tm:bodyslam",
    "tm:breakingswipe",
    "tm:brickbreak",
    "tm:brutalswing",
    "tm:bulldoze",
    "tm:captivate",
    "tm:confide",
    "tm:crunch",
    "tm:cut",
    "tm:dig",
    "tm:doubleteam",
    "tm:dragonpulse",
    "tm:dragontail",
    "tm:drillrun",
    "tm:earthpower",
    "tm:earthquake",
    "tm:endure",
    "tm:facade",
    "tm:fireblast",
    "tm:firefang",
    "tm:firepunch",
    "tm:flamethrower",
    "tm:flashcannon",
    "tm:fling",
    "tm:focusblast",
    "tm:focuspunch",
    "tm:frustration",
    "tm:gigaimpact",
    "tm:heatcrash",
    "tm:heavyslam",
    "tm:helpinghand",
    "tm:hiddenpower",
    "tm:highhorsepower",
    "tm:hydropump",
    "tm:hyperbeam",
    "tm:icebeam",
    "tm:icefang",
    "tm:icepunch",
    "tm:icywind",
    "tm:incinerate",
    "tm:irondefense",
    "tm:ironhead",
    "tm:irontail",
    "tm:megahorn",
    "tm:megakick",
    "tm:megapunch",
    "tm:mudshot",
    "tm:naturalgift",
    "tm:outrage",
    "tm:payback",
    "tm:payday",
    "tm:poisonjab",
    "tm:poweruppunch",
    "tm:protect",
    "tm:raindance",
    "tm:rest",
    "tm:return",
    "tm:reversal",
    "tm:roar",
    "tm:rockblast",
    "tm:rockclimb",
    "tm:rockpolish",
    "tm:rockslide",
    "tm:rocksmash",
    "tm:rocktomb",
    "tm:round",
    "tm:sandstorm",
    "tm:scaryface",
    "tm:secretpower",
    "tm:shadowclaw",
    "tm:shockwave",
    "tm:sleeptalk",
    "tm:smackdown",
    "tm:smartstrike",
    "tm:snore",
    "tm:stealthrock",
    "tm:stompingtantrum",
    "tm:stoneedge",
    "tm:strength",
    "tm:substitute",
    "tm:sunnyday",
    "tm:superpower",
    "tm:surf",
    "tm:swagger",
    "tm:swordsdance",
    "tm:thief",
    "tm:thunder",
    "tm:thunderbolt",
    "tm:thunderfang",
    "tm:thunderpunch",
    "tm:toxic",
    "tm:uproar",
    "tm:whirlpool",
    "tutor:ancientpower",
    "tutor:aquatail",
    "tutor:block",
    "tutor:dragonpulse",
    "tutor:drillrun",
    "tutor:earthpower",
    "tutor:endeavor",
    "tutor:firepunch",
    "tutor:focuspunch",
    "tutor:furycutter",
    "tutor:headbutt",
    "tutor:icepunch",
    "tutor:icywind",
    "tutor:ironhead",
    "tutor:irontail",
    "tutor:meteorbeam",
    "tutor:mudslap",
    "tutor:outrage",
    "tutor:rollout",
    "tutor:scorchingsands",
    "tutor:shockwave",
    "tutor:sleeptalk",
    "tutor:snore",
    "tutor:spite",
    "tutor:stealthrock",
    "tutor:stompingtantrum",
    "tutor:superpower",
    "tutor:thunderpunch",
    "tutor:uproar"
  ],
  "labels": [
    "gen4"
  ],
  "pokedex": [
    "cobblemon.species.rhyperior.desc"
  ],
  "preEvolution": "rhydon",
  "evolutions": [],
  "baseScale": 1.5,
  "hitbox": {
    "width": 1.3,
    "height": 1.8,
    "fixed": false
  },
  "baseFriendship": 50,
  "evYield": {
    "hp": 0,
    "attack": 3,
    "defence": 0,
    "special_attack": 0,
    "special_defence": 0,
    "speed": 0
  },
  "height": 24,
  "weight": 2828,
  "aspects": [],
  "cannotDynamax": false
}