{
  "name": "Turtonator",
  "nationalPokedexNumber": 776,
  "primaryType": "fire",
  "secondaryType": "dragon",
  "abilities": [
    "shellarmor"
  ],
  "baseStats": {
    "hp": 60,
    "attack": 78,
    "defence": 135,
    "special_attack": 91,
    "special_defence": 85,
    "speed": 36
  },
  "catchRate": 70,
  "maleRatio": 0.5,
  "shoulderMountable": false,
  "baseExperienceYield": 170,
  "experienceGroup": "medium_fast",
  "eggCycles": 20,
  "eggGroups": [
    "monster",
    "dragon"
  ],
  "moves": [
    "1:smog",
    "1:tackle",
    "4:ember",
    "8:protect",
    "12:endure",
    "16:flail",
    "20:incinerate",
    "24:irondefense",
    "28:dragonpulse",
    "32:bodyslam",
    "36:flamethrower",
    "40:shelltrap",
    "44:shellsmash",
    "48:overheat",
    "52:explosion",
    "egg:curse",
    "egg:firespin",
    "egg:headsmash",
    "egg:rapidspin",
    "egg:revenge",
    "egg:wideguard",
    "tm:attract",
    "tm:bodypress",
    "tm:bodyslam",
    "tm:brutalswing",
    "tm:bulkup",
    "tm:bulldoze",
    "tm:chargebeam",
    "tm:confide",
    "tm:doubleteam",
    "tm:dragonclaw",
    "tm:dragonpulse",
    "tm:dragontail",
    "tm:earthquake",
    "tm:endure",
    "tm:explosion",
    "tm:facade",
    "tm:fireblast",
    "tm:firespin",
    "tm:flamecharge",
    "tm:flamethrower",
    "tm:flashcannon",
    "tm:fling",
    "tm:focusblast",
    "tm:frustration",
    "tm:gigaimpact",
    "tm:heatcrash",
    "tm:heatwave",
    "tm:heavyslam",
    "tm:hiddenpower",
    "tm:hyperbeam",
    "tm:hypervoice",
    "tm:irondefense",
    "tm:ironhead",
    "tm:irontail",
    "tm:megakick",
    "tm:megapunch",
    "tm:outrage",
    "tm:overheat",
    "tm:payback",
    "tm:protect",
    "tm:rest",
    "tm:return",
    "tm:revenge",
    "tm:roar",
    "tm:rocktomb",
    "tm:round",
    "tm:sleeptalk",
    "tm:smackdown",
    "tm:snore",
    "tm:solarbeam",
    "tm:stompingtantrum",
    "tm:stoneedge",
    "tm:substitute",
    "tm:sunnyday",
    "tm:swagger",
    "tm:taunt",
    "tm:toxic",
    "tm:uproar",
    "tm:venoshock",
    "tm:willowisp",
    "tm:workup",
    "tutor:block",
    "tutor:bodyslam",
    "tutor:burningjealousy",
    "tutor:dracometeor",
    "tutor:dragonpulse",
    "tutor:dragontail",
    "tutor:endeavor",
    "tutor:flamethrower",
    "tutor:heatwave",
    "tutor:hypervoice",
    "tutor:irondefense",
    "tutor:ironhead",
    "tutor:irontail",
    "tutor:lashout",
    "tutor:outrage",
    "tutor:scaleshot",
    "tutor:scorchingsands",
    "tutor:shelltrap",
    "tutor:shockwave",
    "tutor:snore",
    "tutor:stompingtantrum",
    "tutor:uproar",
    "tutor:wideguard"
  ],
  "labels": [
    "gen7"
  ],
  "pokedex": [
    "cobblemon.species.turtonator.desc"
  ],
  "evolutions": [],
  "baseScale": 1,
  "hitbox": {
    "width": 1,
    "height": 1,
    "fixed": false
  },
  "baseFriendship": 50,
  "evYield": {
    "hp": 0,
    "attack": 0,
    "defence": 2,
    "special_attack": 0,
    "special_defence": 0,
    "speed": 0
  },
  "height": 20,
  "weight": 2120,
  "aspects": [],
  "cannotDynamax": false
}