{
  "baseYield": {
    "min": 3,
    "max": 6
  },
  "preferredBiomeTags": [
    "cobblemon:is_arid"
  ],
  "growthTime": {
    "min": 42,
    "max": 52
  },
  "refreshRate": {
    "min": 14,
    "max": 24
  },
  "favoriteMulches": [
    "sandy"
  ],
  "growthFactors": [
    {
      "variant": "cobblemon:preferred_biome",
      "bonusYield": {
        "min": 1,
        "max": 2
      }
    }
  ],
  "randomizedGrowthPoints": false,
  "spawnConditions": [
    {
      "variant": "cobblemon:preferred_biome",
      "minGroveSize": 3,
      "maxGroveSize": 5
    }
  ],
  "growthPoints": [
    {
      "position": {
        "x": 8.0,
        "y": 12.0,
        "z": 8.0
      },
      "rotation": {
        "x": 0.0,
        "y": 0.0,
        "z": 0.0
      }
    },
    {
      "position": {
        "x": 8.0,
        "y": 16.0,
        "z": 8.0
      },
      "rotation": {
        "x": 0.0,
        "y": -180.0,
        "z": 0.0
      }
    },
    {
      "position": {
        "x": 8.0,
        "y": 20.0,
        "z": 8.0
      },
      "rotation": {
        "x": 0.0,
        "y": 0.0,
        "z": 0.0
      }
    },
    {
      "position": {
        "x": 8.0,
        "y": 24.0,
        "z": 8.0
      },
      "rotation": {
        "x": 0.0,
        "y": -180.0,
        "z": 0.0
      }
    },
    {
      "position": {
        "x": 8.0,
        "y": 28.0,
        "z": 8.0
      },
      "rotation": {
        "x": 0.0,
        "y": 0.0,
        "z": 0.0
      }
    },
    {
      "position": {
        "x": 8.0,
        "y": 32.0,
        "z": 8.0
      },
      "rotation": {
        "x": 0.0,
        "y": -180.0,
        "z": 0.0
      }
    },
    {
      "position": {
        "x": 8.0,
        "y": 36.0,
        "z": 8.0
      },
      "rotation": {
        "x": 0.0,
        "y": 0.0,
        "z": 0.0
      }
    },
    {
      "position": {
        "x": 8.0,
        "y": 40.0,
        "z": 8.0
      },
      "rotation": {
        "x": 0.0,
        "y": -180.0,
        "z": 0.0
      }
    },
    {
      "position": {
        "x": 8.0,
        "y": 44.0,
        "z": 8.0
      },
      "rotation": {
        "x": 0.0,
        "y": 0.0,
        "z": 0.0
      }
    },
    {
      "position": {
        "x": 8.0,
        "y": 48.0,
        "z": 8.0
      },
      "rotation": {
        "x": 0.0,
        "y": -180.0,
        "z": 0.0
      }
    }
  ],
  "mutations": {
    "cobblemon:oran_berry": "cobblemon:leppa_berry",
    "cobblemon:iapapa_berry": "cobblemon:nomel_berry"
  },
  "sproutShape": "sword-sprout",
  "matureShape": "sword-mature",
  "flavors": {
    "SPICY": 10,
    "SOUR": 10
  },
  "weight": 1.0,
  "tintIndexes": [],
  "flowerModel": "cobblemon:flower.geo",
  "flowerTexture": "cobblemon:textures/berries/flower.png",
  "fruitModel": "cobblemon:pinap_berry.geo",
  "fruitTexture": "cobblemon:textures/berries/pinap.png"
}