{
  "baseYield": {
    "min": 2,
    "max": 3
  },
  "preferredBiomeTags": [
    "cobblemon:is_forest",
    "cobblemon:is_jungle",
    "cobblemon:is_swamp"
  ],
  "growthTime": {
    "min": 50,
    "max": 60
  },
  "refreshRate": {
    "min": 16,
    "max": 26
  },
  "favoriteMulches": [
    "humid",
    "peat"
  ],
  "growthFactors": [
    {
      "variant": "cobblemon:preferred_biome",
      "bonusYield": {
        "min": 1,
        "max": 2
      }
    }
  ],
  "randomizedGrowthPoints": true,
  "spawnConditions": [
    {
      "variant": "cobblemon:preferred_biome",
      "minGroveSize": 3,
      "maxGroveSize": 5
    }
  ],
  "growthPoints": [
    {
      "position": {
        "x": 10.25,
        "y": 5.75,
        "z": 2.5
      },
      "rotation": {
        "x": 0.0,
        "y": -45.0,
        "z": 0.0
      }
    },
    {
      "position": {
        "x": 5.75,
        "y": 5.5,
        "z": 13.5
      },
      "rotation": {
        "x": 0.0,
        "y": -167.5,
        "z": 0.0
      }
    },
    {
      "position": {
        "x": 2.5,
        "y": 6.0,
        "z": 5.75
      },
      "rotation": {
        "x": 0.0,
        "y": 77.5,
        "z": 0.0
      }
    },
    {
      "position": {
        "x": 13.5,
        "y": 5.5,
        "z": 10.25
      },
      "rotation": {
        "x": 0.0,
        "y": -87.5,
        "z": 0.0
      }
    },
    {
      "position": {
        "x": 5.75,
        "y": 5.5,
        "z": 2.5
      },
      "rotation": {
        "x": 0.0,
        "y": 27.5,
        "z": 0.0
      }
    },
    {
      "position": {
        "x": 2.5,
        "y": 5.75,
        "z": 10.25
      },
      "rotation": {
        "x": 0.0,
        "y": 130.0,
        "z": 0.0
      }
    },
    {
      "position": {
        "x": 10.25,
        "y": 6.0,
        "z": 13.5
      },
      "rotation": {
        "x": 0.0,
        "y": -147.5,
        "z": 0.0
      }
    },
    {
      "position": {
        "x": 13.5,
        "y": 5.75,
        "z": 5.75
      },
      "rotation": {
        "x": 0.0,
        "y": -105.0,
        "z": 0.0
      }
    }
  ],
  "mutations": {
    "cobblemon:sitrus_berry": "cobblemon:enigma_berry",
    "cobblemon:magost_berry": "cobblemon:watmel_berry"
  },
  "sproutShape": "short-sprout",
  "matureShape": "short-mature",
  "flavors": {
    "SPICY": 20,
    "SOUR": 10
  },
  "weight": 1.0,
  "tintIndexes": [],
  "flowerModel": "cobblemon:flower.geo",
  "flowerTexture": "cobblemon:textures/berries/flower.png",
  "fruitModel": "cobblemon:tanga_berry.geo",
  "fruitTexture": "cobblemon:textures/berries/tanga.png"
}