{
	"format_version": "1.8.0",
	"animations": {
		"animation.cetitan.ground_idle": {
			"loop": true,
			"bones": {
				"torso": {
					"rotation": ["2.5+1*math.sin(q.anim_time*90*1)", 0, "0.2*math.cos(q.anim_time*90*1)"],
					"position": [0, "0.2*math.cos(q.anim_time*90*1)", 0]
				},
				"tail": {
					"rotation": ["7.5+1*math.sin(q.anim_time*90*1-60)", 0, "1*math.sin(q.anim_time*90*2-220)"]
				},
				"tail2": {
					"rotation": ["17.5+2*math.sin(q.anim_time*90*1-90)", 0, 0]
				},
				"tail3": {
					"rotation": ["17.5+3*math.sin(q.anim_time*90*1-120)", 0, 0]
				},
				"tail4": {
					"rotation": ["12.5+10*math.sin(q.anim_time*90*1-150)", 0, "2*math.sin(q.anim_time*90*2-60)"]
				},
				"tail5": {
					"rotation": ["15+6*math.sin(q.anim_time*90*1-220)", 0, 0]
				},
				"body": {
					"position": [0, -3, 0]
				},
				"leg_left": {
					"rotation": [-25, -32.5, 0],
					"position": [-1, 0, 0]
				},
				"leg_left2": {
					"rotation": [25, 0, 0]
				},
				"leg_right": {
					"rotation": [-25, 32.5, 0],
					"position": [1, 0, 0]
				},
				"leg_right2": {
					"rotation": [25, 0, 0]
				},
				"arm_right": {
					"rotation": ["-2.2365+1*math.sin(q.anim_time*90*1-80)", "4.0676-1*math.sin(q.anim_time*90*1-30)", "-45.081-1*math.sin(q.anim_time*90*1-80)"]
				},
				"arm_left": {
					"rotation": ["-2.2365+1*math.sin(q.anim_time*90*1-80)", "-4.0676+1*math.sin(q.anim_time*90*1-30)", "45.081+1*math.sin(q.anim_time*90*1-80)"]
				},
				"hand_left": {
					"rotation": [0, 12.5, "2*math.sin(q.anim_time*90*1-120)"]
				},
				"finger_left": {
					"rotation": [0, -65, 0],
					"position": [0, 0, 0.75]
				},
				"hand_right": {
					"rotation": [0, -12.5, "-2*math.sin(q.anim_time*90*1-120)"]
				},
				"finger_right": {
					"rotation": [0, 65, 0],
					"position": [0, 0, 0.75]
				},
				"torso_closed": {
					"scale": 1
				}
			}
		},
		"animation.cetitan.battle_idle": {
			"loop": true,
			"bones": {
				"torso": {
					"rotation": ["5+1*math.sin(q.anim_time*90*1)", 0, "0+0.2*math.cos(q.anim_time*90*1)"],
					"position": [0, "0.2*math.cos(q.anim_time*90*1)", 0]
				},
				"tail": {
					"rotation": ["15+1*math.sin(q.anim_time*90*1-60)", 0, "0+1*math.sin(q.anim_time*90*2-220)"]
				},
				"tail2": {
					"rotation": ["10+2*math.sin(q.anim_time*90*1-90)", 0, 0]
				},
				"tail3": {
					"rotation": ["27.5+3*math.sin(q.anim_time*90*1-120)", 0, 0]
				},
				"tail4": {
					"rotation": ["30+10*math.sin(q.anim_time*90*1-150)", 0, "0+2*math.sin(q.anim_time*90*2-60)"]
				},
				"tail5": {
					"rotation": ["15+6*math.sin(q.anim_time*90*1-220)", 0, 0]
				},
				"body": {
					"position": [0, -3, 0]
				},
				"leg_left": {
					"rotation": [-25, -32.5, 0],
					"position": [-1, 0, 0]
				},
				"leg_left2": {
					"rotation": [25, 0, 0]
				},
				"leg_right": {
					"rotation": [-25, 32.5, 0],
					"position": [1, 0, 0]
				},
				"leg_right2": {
					"rotation": [25, 0, 0]
				},
				"arm_right": {
					"rotation": ["0.2416+1*math.sin(q.anim_time*90*1-80)", "5.0377-1*math.sin(q.anim_time*90*1-30)", "-17.4886-1*math.sin(q.anim_time*90*1-80)"]
				},
				"arm_left": {
					"rotation": ["0.2416+1*math.sin(q.anim_time*90*1-80)", "-5.0377+1*math.sin(q.anim_time*90*1-30)", "17.4886+1*math.sin(q.anim_time*90*1-80)"]
				},
				"hand_left": {
					"rotation": [0, 12.5, "2*math.sin(q.anim_time*90*1-120)"]
				},
				"finger_left": {
					"rotation": [0, -65, 0],
					"position": [0, 0, 0.75]
				},
				"hand_right": {
					"rotation": [0, -12.5, "-2*math.sin(q.anim_time*90*1-120)"]
				},
				"finger_right": {
					"rotation": [0, 65, 0],
					"position": [0, 0, 0.75]
				},
				"torso_closed": {
					"scale": 1
				}
			}
		},
		"animation.cetitan.ground_walk": {
			"loop": true,
			"animation_length": 4,
			"bones": {
				"torso": {
					"rotation": ["2.5+2*math.sin(q.anim_time*90*4+60)", "-2*math.sin(q.anim_time*90*2)", "3*math.sin(q.anim_time*90*2+60)"],
					"position": {
						"0.0": ["1*math.cos(q.anim_time*90*2)", "-1*math.cos(q.anim_time*90*4)", "-1*math.sin(q.anim_time*90*4)"],
						"0.75": ["1*math.cos(q.anim_time*90*2)", "-1-1*math.cos(q.anim_time*90*4)", "-1*math.sin(q.anim_time*90*4)"],
						"0.8333": ["1*math.cos(q.anim_time*90*2)", "-1-1*math.cos(q.anim_time*90*4)", "-1*math.sin(q.anim_time*90*4)"],
						"0.875": ["1*math.cos(q.anim_time*90*2)", "0.25-1*math.cos(q.anim_time*90*4)", "-1*math.sin(q.anim_time*90*4)"],
						"0.9167": ["1*math.cos(q.anim_time*90*2)", "-0.5-1*math.cos(q.anim_time*90*4)", "-1*math.sin(q.anim_time*90*4)"],
						"1.75": ["1*math.cos(q.anim_time*90*2)", "-1-1*math.cos(q.anim_time*90*4)", "-1*math.sin(q.anim_time*90*4)"],
						"1.8333": ["1*math.cos(q.anim_time*90*2)", "-1-1*math.cos(q.anim_time*90*4)", "-1*math.sin(q.anim_time*90*4)"],
						"1.875": ["1*math.cos(q.anim_time*90*2)", "0.25-1*math.cos(q.anim_time*90*4)", "-1*math.sin(q.anim_time*90*4)"],
						"1.9167": ["1*math.cos(q.anim_time*90*2)", "-0.5-1*math.cos(q.anim_time*90*4)", "-1*math.sin(q.anim_time*90*4)"],
						"2.75": ["1*math.cos(q.anim_time*90*2)", "-1-1*math.cos(q.anim_time*90*4)", "-1*math.sin(q.anim_time*90*4)"],
						"2.8333": ["1*math.cos(q.anim_time*90*2)", "-1-1*math.cos(q.anim_time*90*4)", "-1*math.sin(q.anim_time*90*4)"],
						"2.875": ["1*math.cos(q.anim_time*90*2)", "0.25-1*math.cos(q.anim_time*90*4)", "-1*math.sin(q.anim_time*90*4)"],
						"2.9167": ["1*math.cos(q.anim_time*90*2)", "-0.5-1*math.cos(q.anim_time*90*4)", "-1*math.sin(q.anim_time*90*4)"],
						"3.75": ["1*math.cos(q.anim_time*90*2)", "-1-1*math.cos(q.anim_time*90*4)", "-1*math.sin(q.anim_time*90*4)"],
						"3.8333": ["1*math.cos(q.anim_time*90*2)", "-1-1*math.cos(q.anim_time*90*4)", "-1*math.sin(q.anim_time*90*4)"],
						"3.875": ["1*math.cos(q.anim_time*90*2)", "0.25-1*math.cos(q.anim_time*90*4)", "-1*math.sin(q.anim_time*90*4)"],
						"3.9167": ["1*math.cos(q.anim_time*90*2)", "-0.5-1*math.cos(q.anim_time*90*4)", "-1*math.sin(q.anim_time*90*4)"],
						"4.0": ["1*math.cos(q.anim_time*90*2)", -1.45, "-1*math.sin(q.anim_time*90*4)"]
					}
				},
				"tail": {
					"rotation": ["7.5+2*math.sin(q.anim_time*90*4-90)", "5*math.sin(q.anim_time*90*2-220)", "1*math.sin(q.anim_time*90*2-220)"]
				},
				"tail2": {
					"rotation": {
						"0.0": ["14.5+2*math.sin(q.anim_time*90*4-90)", "0+2*math.sin(q.anim_time*90*2-90)", 0],
						"0.125": ["17.5+2*math.sin(q.anim_time*90*4-90)", "2*math.sin(q.anim_time*90*2-90)", 0],
						"0.7917": ["17.5+2*math.sin(q.anim_time*90*4-90)", "2*math.sin(q.anim_time*90*2-90)", 0],
						"0.875": ["14.5+2*math.sin(q.anim_time*90*4-90)", "0+2*math.sin(q.anim_time*90*2-90)", 0],
						"1.125": ["17.5+2*math.sin(q.anim_time*90*4-90)", "2*math.sin(q.anim_time*90*2-90)", 0],
						"1.7917": ["17.5+2*math.sin(q.anim_time*90*4-90)", "2*math.sin(q.anim_time*90*2-90)", 0],
						"1.875": ["14.5+2*math.sin(q.anim_time*90*4-90)", "0+2*math.sin(q.anim_time*90*2-90)", 0],
						"2.125": ["17.5+2*math.sin(q.anim_time*90*4-90)", "2*math.sin(q.anim_time*90*2-90)", 0],
						"2.7917": ["17.5+2*math.sin(q.anim_time*90*4-90)", "2*math.sin(q.anim_time*90*2-90)", 0],
						"2.875": ["14.5+2*math.sin(q.anim_time*90*4-90)", "0+2*math.sin(q.anim_time*90*2-90)", 0],
						"3.125": ["17.5+2*math.sin(q.anim_time*90*4-90)", "2*math.sin(q.anim_time*90*2-90)", 0],
						"3.7917": ["17.5+2*math.sin(q.anim_time*90*4-90)", "2*math.sin(q.anim_time*90*2-90)", 0],
						"3.875": ["14.5+2*math.sin(q.anim_time*90*4-90)", "0+2*math.sin(q.anim_time*90*2-90)", 0],
						"4.0": ["14.5+2*math.sin(q.anim_time*90*4-90)", "0+2*math.sin(q.anim_time*90*2-90)", 0]
					}
				},
				"tail3": {
					"rotation": ["17.5+6*math.sin(q.anim_time*90*2-120)", 0, 0]
				},
				"tail4": {
					"rotation": ["12.5+4*math.sin(q.anim_time*90*4-90)", 0, "-5*math.sin(q.anim_time*90*2-90)"]
				},
				"tail5": {
					"rotation": ["15+6*math.sin(q.anim_time*90*1-220)", 0, 0]
				},
				"body": {
					"rotation": [0, "2*math.sin(q.anim_time*90*2+60)", 0],
					"position": {
						"0.0": [0, "-3.25+1*math.sin(q.anim_time*90*4)", 0],
						"0.125": [0, "-2.75+1*math.sin(q.anim_time*90*4)", 0],
						"0.2083": [0, "-3.25+1*math.sin(q.anim_time*90*4)", 0],
						"0.75": [0, "-2.75+1*math.sin(q.anim_time*90*4)", 0],
						"0.8333": [0, "-3.75+1*math.sin(q.anim_time*90*4)", 0],
						"0.9167": [0, "-3+1*math.sin(q.anim_time*90*4)", 0],
						"1.0": [0, "-3.25+1*math.sin(q.anim_time*90*4)", 0],
						"1.125": [0, "-2.75+1*math.sin(q.anim_time*90*4)", 0],
						"1.2083": [0, "-3.25+1*math.sin(q.anim_time*90*4)", 0],
						"1.75": [0, "-2.75+1*math.sin(q.anim_time*90*4)", 0],
						"1.8333": [0, "-3.75+1*math.sin(q.anim_time*90*4)", 0],
						"1.9167": [0, "-3+1*math.sin(q.anim_time*90*4)", 0],
						"2.0": [0, "-3.25+1*math.sin(q.anim_time*90*4)", 0],
						"2.125": [0, "-2.75+1*math.sin(q.anim_time*90*4)", 0],
						"2.2083": [0, "-3.25+1*math.sin(q.anim_time*90*4)", 0],
						"2.75": [0, "-2.75+1*math.sin(q.anim_time*90*4)", 0],
						"2.8333": [0, "-3.75+1*math.sin(q.anim_time*90*4)", 0],
						"2.9167": [0, "-3+1*math.sin(q.anim_time*90*4)", 0],
						"3.0": [0, "-3.25+1*math.sin(q.anim_time*90*4)", 0],
						"3.125": [0, "-2.75+1*math.sin(q.anim_time*90*4)", 0],
						"3.2083": [0, "-3.25+1*math.sin(q.anim_time*90*4)", 0],
						"3.75": [0, "-2.75+1*math.sin(q.anim_time*90*4)", 0],
						"3.8333": [0, "-3.75+1*math.sin(q.anim_time*90*4)", 0],
						"3.9167": [0, "-3+1*math.sin(q.anim_time*90*4)", 0],
						"4.0": [0, "-3.25+1*math.sin(q.anim_time*90*4)", 0]
					}
				},
				"leg_left": {
					"rotation": {
						"0.0": [-12.41, -12.5, 0],
						"1.0": {
							"pre": [0, -2.5, 0],
							"post": [0, -2.5, 0],
							"lerp_mode": "catmullrom"
						},
						"1.6667": {
							"post": [-40, -12.5, 0],
							"lerp_mode": "catmullrom"
						},
						"1.7917": {
							"post": [-15, -12.5, 0],
							"lerp_mode": "catmullrom"
						},
						"2.0": {
							"post": [-12.41, -12.5, 0],
							"lerp_mode": "catmullrom"
						},
						"3.0": {
							"post": [0, -2.5, 0],
							"lerp_mode": "catmullrom"
						},
						"3.6667": {
							"post": [-40, -12.5, 0],
							"lerp_mode": "catmullrom"
						},
						"3.7917": {
							"post": [-15, -12.5, 0],
							"lerp_mode": "catmullrom"
						},
						"4.0": {
							"post": [-12.41, -12.5, 0],
							"lerp_mode": "catmullrom"
						}
					},
					"position": {
						"0.0": [-0.25, 1, "1*math.sin(q.anim_time*90*2)"],
						"1.0": [-0.25, 1, "1*math.sin(q.anim_time*90*2)"],
						"1.6667": [-0.25, 3.5, "1*math.sin(q.anim_time*90*2)"],
						"1.7917": [-0.25, 1, "1*math.sin(q.anim_time*90*2)"],
						"1.8333": [-0.25, 1.75, "1*math.sin(q.anim_time*90*2)"],
						"1.875": [-0.25, 0.94, "1*math.sin(q.anim_time*90*2)"],
						"1.9167": [-0.25, 1.71, "1*math.sin(q.anim_time*90*2)"],
						"2.0": [-0.25, 1, "1*math.sin(q.anim_time*90*2)"],
						"3.0": [-0.25, 1, "1*math.sin(q.anim_time*90*2)"],
						"3.6667": [-0.25, 3.5, "1*math.sin(q.anim_time*90*2)"],
						"3.7917": [-0.25, 1, "1*math.sin(q.anim_time*90*2)"],
						"4.0": [-0.25, 1, "1*math.sin(q.anim_time*90*2)"]
					}
				},
				"leg_left2": {
					"rotation": {
						"0.0": {
							"post": [18.88, 0, 0],
							"lerp_mode": "catmullrom"
						},
						"1.0": {
							"post": [37.5, 0, 0],
							"lerp_mode": "catmullrom"
						},
						"1.375": {
							"post": [62.04437, 1.56187, -2.00941],
							"lerp_mode": "catmullrom"
						},
						"1.6667": {
							"post": [32.5, 0, 0],
							"lerp_mode": "catmullrom"
						},
						"1.7917": {
							"post": [15, 0, 0],
							"lerp_mode": "catmullrom"
						},
						"2.0": {
							"post": [18.88, 0, 0],
							"lerp_mode": "catmullrom"
						},
						"3.0": {
							"post": [37.5, 0, 0],
							"lerp_mode": "catmullrom"
						},
						"3.375": {
							"post": [62.04437, 1.56187, -2.00941],
							"lerp_mode": "catmullrom"
						},
						"3.6667": {
							"post": [32.5, 0, 0],
							"lerp_mode": "catmullrom"
						},
						"3.7917": {
							"post": [15, 0, 0],
							"lerp_mode": "catmullrom"
						},
						"4.0": {
							"post": [18.88, 0, 0],
							"lerp_mode": "catmullrom"
						}
					}
				},
				"leg_right": {
					"rotation": {
						"0.0": {
							"post": [0, 2.5, 0],
							"lerp_mode": "catmullrom"
						},
						"0.6667": {
							"post": [-40, 12.5, 0],
							"lerp_mode": "catmullrom"
						},
						"0.7917": {
							"post": [-15, 12.5, 0],
							"lerp_mode": "catmullrom"
						},
						"1.0": {
							"post": [-12.41, 12.5, 0],
							"lerp_mode": "catmullrom"
						},
						"2.0": {
							"post": [0, 2.5, 0],
							"lerp_mode": "catmullrom"
						},
						"2.6667": {
							"post": [-40, 12.5, 0],
							"lerp_mode": "catmullrom"
						},
						"2.7917": {
							"post": [-15, 12.5, 0],
							"lerp_mode": "catmullrom"
						},
						"3.0": {
							"post": [-12.41, 12.5, 0],
							"lerp_mode": "catmullrom"
						},
						"4.0": {
							"post": [0, 2.5, 0],
							"lerp_mode": "catmullrom"
						}
					},
					"position": {
						"0.0": [0.25, 1, "1*math.sin(q.anim_time*90*2)"],
						"0.6667": [0.25, 3.5, "1*math.sin(q.anim_time*90*2)"],
						"0.7917": [0.25, 1, "1*math.sin(q.anim_time*90*2)"],
						"1.0": [0.25, 1, "1*math.sin(q.anim_time*90*2)"],
						"2.0": [0.25, 1, "1*math.sin(q.anim_time*90*2)"],
						"2.6667": [0.25, 3.5, "1*math.sin(q.anim_time*90*2)"],
						"2.7917": [0.25, 1, "1*math.sin(q.anim_time*90*2)"],
						"3.0": [0.25, 1, "1*math.sin(q.anim_time*90*2)"],
						"4.0": [0.25, 1, "1*math.sin(q.anim_time*90*2)"]
					}
				},
				"leg_right2": {
					"rotation": {
						"0.0": {
							"post": [37.5, 0, 0],
							"lerp_mode": "catmullrom"
						},
						"0.375": {
							"post": [62.00035, -1.82228, 2.29075],
							"lerp_mode": "catmullrom"
						},
						"0.6667": {
							"post": [32.5, 0, 0],
							"lerp_mode": "catmullrom"
						},
						"0.7917": {
							"post": [15, 0, 0],
							"lerp_mode": "catmullrom"
						},
						"1.0": {
							"post": [18.88, 0, 0],
							"lerp_mode": "catmullrom"
						},
						"2.0": {
							"post": [37.5, 0, 0],
							"lerp_mode": "catmullrom"
						},
						"2.375": {
							"post": [62.00035, -1.82228, 2.29075],
							"lerp_mode": "catmullrom"
						},
						"2.6667": {
							"post": [32.5, 0, 0],
							"lerp_mode": "catmullrom"
						},
						"2.7917": {
							"post": [15, 0, 0],
							"lerp_mode": "catmullrom"
						},
						"3.0": {
							"post": [18.88, 0, 0],
							"lerp_mode": "catmullrom"
						},
						"4.0": {
							"post": [37.5, 0, 0],
							"lerp_mode": "catmullrom"
						}
					}
				},
				"arm_right": {
					"rotation": ["0.4681+1*math.sin(q.anim_time*90*1-80)", "-14.9344+5*math.sin(q.anim_time*90*2-30)", "-14.7998-4*math.sin(q.anim_time*90*4-50)"],
					"position": [0, 0, -1]
				},
				"arm_left": {
					"rotation": ["0.4722+1*math.sin(q.anim_time*90*1-80)", "14.9344+5*math.sin(q.anim_time*90*2-30)", "14.8008+4*math.sin(q.anim_time*90*4-50)"],
					"position": [0, 0, -1]
				},
				"hand_left": {
					"rotation": [0, "15+5*math.sin(q.anim_time*90*2-30)", "0+2*math.sin(q.anim_time*90*1-120)+1*math.sin(q.anim_time*90*12-120)"]
				},
				"finger_left": {
					"rotation": [0, -65, 0],
					"position": [0, 0, 0.75]
				},
				"hand_right": {
					"rotation": [0, "-15+5*math.sin(q.anim_time*90*2-30)", "0-2*math.sin(q.anim_time*90*1-120)-1*math.sin(q.anim_time*90*12-120)"]
				},
				"finger_right": {
					"rotation": [0, 65, 0],
					"position": [0, 0, 0.75]
				},
				"torso_closed": {
					"scale": 1
				},
				"toe_left": {
					"rotation": {
						"0.0": [0, 0, 0],
						"0.75": [-35, 0, 0],
						"1.4583": [0, 0, 0],
						"2.0": [0, 0, 0],
						"2.75": [-35, 0, 0],
						"3.4583": [0, 0, 0],
						"4.0": [0, 0, 0]
					}
				},
				"toe_left2": {
					"rotation": {
						"0.0": [0, 0, 0],
						"0.75": [-35, 0, 0],
						"1.4583": [0, 0, 0],
						"2.0": [0, 0, 0],
						"2.75": [-35, 0, 0],
						"3.4583": [0, 0, 0],
						"4.0": [0, 0, 0]
					}
				},
				"toe_right": {
					"rotation": {
						"0.0": [-22.65, 0, 0],
						"0.4583": [0, 0, 0],
						"1.0": [0, 0, 0],
						"1.75": [-35, 0, 0],
						"2.0": [-22.65, 0, 0],
						"2.4583": [0, 0, 0],
						"3.0": [0, 0, 0],
						"3.75": [-35, 0, 0],
						"4.0": [-22.65, 0, 0]
					}
				},
				"toe_right2": {
					"rotation": {
						"0.0": [-22.65, 0, 0],
						"0.4583": [0, 0, 0],
						"1.0": [0, 0, 0],
						"1.75": [-35, 0, 0],
						"2.0": [-22.65, 0, 0],
						"2.4583": [0, 0, 0],
						"3.0": [0, 0, 0],
						"3.75": [-35, 0, 0],
						"4.0": [-22.65, 0, 0]
					}
				}
			}
		},
		"animation.cetitan.sleep": {
			"loop": true,
			"bones": {
				"torso": {
					"rotation": ["0.2*math.cos(q.anim_time*90*1-60)", 0, 0],
					"position": [0, "-14.5+0.2*math.cos(q.anim_time*90*1-60)", 0]
				},
				"torso_closed": {
					"scale": 1
				},
				"arm_left": {
					"rotation": [32.15005, 33.97462, "40.9791+1*math.cos(q.anim_time*90*1-60)"],
					"position": [-1.5, 0, 0]
				},
				"hand_left": {
					"rotation": [-1.45142, 22.19809, "-23.055-1*math.cos(q.anim_time*90*1-60)"]
				},
				"finger_left": {
					"rotation": [0, -72.5, 0]
				},
				"arm_right": {
					"rotation": [32.15005, -33.97462, "-40.9791-1*math.cos(q.anim_time*90*1-60)"],
					"position": [1.5, 0, 0]
				},
				"hand_right": {
					"rotation": [-1.45142, -22.19809, "23.055+1*math.cos(q.anim_time*90*1-60)"]
				},
				"finger_right": {
					"rotation": [0, 72.5, 0]
				},
				"tail": {
					"rotation": [-10, "0.2*math.sin(q.anim_time*90*1-60)", "1*math.cos(q.anim_time*90*1-60)"]
				},
				"tail2": {
					"rotation": [-5, "0.2*math.sin(q.anim_time*90*1-60)", 0]
				},
				"tail3": {
					"rotation": ["math.clamp(1*math.cos(q.anim_time*90*2-60),0,2)", "1*math.sin(q.anim_time*90*1-90)", 0]
				},
				"tail4": {
					"rotation": [10, "1*math.sin(q.anim_time*90*1-120)", 0]
				},
				"tail5": {
					"rotation": ["2.5+math.clamp(1*math.cos(q.anim_time*90*2-60),0,2)", "0+0.2*math.sin(q.anim_time*90*1-60)", 0]
				},
				"eyelid_right": {
					"position": [-0.1, 0, 0]
				},
				"eyelid_left": {
					"position": [0.1, 0, 0]
				},
				"leg_left": {
					"rotation": [-80, -62.5, 0],
					"position": [0, -12.5, 0]
				},
				"leg_left2": {
					"rotation": [80, 0, 0]
				},
				"leg_right": {
					"rotation": [-80, 62.5, 0],
					"position": [0, -12.5, 0]
				},
				"leg_right2": {
					"rotation": [80, 0, 0]
				}
			}
		},
		"animation.cetitan.faint": {
			"animation_length": 3,
			"bones": {
				"torso": {
					"rotation": {
						"0.0": [2.5, 0, 0.2],
						"0.25": {
							"pre": [7.5, 0, 0.2],
							"post": [7.5, 0, 0.2],
							"lerp_mode": "catmullrom"
						},
						"0.4583": {
							"post": [-3.92558, 0, 0.2],
							"lerp_mode": "catmullrom"
						},
						"0.5": {
							"post": [-2.36239, 0, 0.2],
							"lerp_mode": "catmullrom"
						},
						"0.5417": {
							"post": [-5.67676, 0, 0.2],
							"lerp_mode": "catmullrom"
						},
						"0.5833": {
							"post": [-5, 0, 0.2],
							"lerp_mode": "catmullrom"
						},
						"0.8333": {
							"post": [-10, 0, 0.2],
							"lerp_mode": "catmullrom"
						},
						"0.9167": {
							"post": [-2.5, 0, 0.2],
							"lerp_mode": "catmullrom"
						},
						"1.125": {
							"post": [-4.14027, 0, 0.2],
							"lerp_mode": "catmullrom"
						},
						"1.4583": {
							"post": [3.08829, 0.03473, 0.19696],
							"lerp_mode": "catmullrom"
						},
						"1.75": {
							"post": [-9.99998, 0.00872, 0.19981],
							"lerp_mode": "catmullrom"
						},
						"1.8333": [0, 0, 0.2],
						"1.9167": [-1.5, 0, 0.2],
						"2.0": [-3.25, 0, 0.2],
						"2.0833": [0, 0, 0.2],
						"2.25": [1, 0, 0.2]
					},
					"position": {
						"0.0": [0, 0.2, 0],
						"0.5833": {
							"pre": [0, 0.2, 0.12],
							"post": [0, 0.2, 0.12],
							"lerp_mode": "catmullrom"
						},
						"0.625": {
							"post": [0, -0.3, 0.17],
							"lerp_mode": "catmullrom"
						},
						"0.6667": {
							"post": [0, 0.42, 0.21],
							"lerp_mode": "catmullrom"
						},
						"0.7083": {
							"post": [0, 0.2, 0],
							"lerp_mode": "catmullrom"
						},
						"0.9167": {
							"post": [0, 0.2, -2],
							"lerp_mode": "catmullrom"
						},
						"0.9583": {
							"post": [0, 0.45, -2],
							"lerp_mode": "catmullrom"
						},
						"1.0": {
							"post": [0, 0.18, -2],
							"lerp_mode": "catmullrom"
						},
						"1.0833": {
							"post": [0, 0.43, -2],
							"lerp_mode": "catmullrom"
						},
						"1.3333": {
							"post": [0, 0.16, 0.75],
							"lerp_mode": "catmullrom"
						},
						"1.625": {
							"post": [0, 0.2, -2],
							"lerp_mode": "catmullrom"
						},
						"1.8333": [0, 0.2, -4]
					}
				},
				"tail": {
					"rotation": {
						"0.0": [6.63397, 0, 0.64279],
						"0.4167": [-5.86472, 0.18223, 0.6214],
						"0.9167": [2.96, 0.05, 0.63],
						"0.9583": [-1.3052, 0.04012, 0.63165],
						"1.125": [6.63398, 0.00059, 0.63826],
						"1.5417": [4.13425, 0.03699, 0.63605],
						"1.9583": [16.63294, -0.14473, 0.62339],
						"2.1667": [-3.36498, 0.1456, 0.62324]
					}
				},
				"tail2": {
					"rotation": {
						"0.0": [15.5, 0, 0],
						"0.375": [10.5, 0, 0],
						"0.875": [18, 0, 0],
						"1.0": [-1.55, 0, 0],
						"1.4167": [10.72, 0, 0],
						"2.25": [-4.5, 0, 0]
					}
				},
				"tail3": {
					"rotation": {
						"0.0": [14.90192, 0, 0],
						"0.5": [2.4, 0, 0],
						"1.0": [12.4, 0, 0],
						"2.25": [-5.1, 0, 0]
					}
				},
				"tail4": {
					"rotation": {
						"0.0": [7.5, 0, -1.73205],
						"0.5417": [-12.5, 0, -1.73205],
						"0.8333": [5, 0, -1.73205],
						"1.875": [30, 0, -1.73205],
						"2.25": [-10, 0, -1.73205]
					}
				},
				"tail5": {
					"rotation": {
						"0.0": [18.85673, 0, 0],
						"0.9583": [14.6, 0, 0],
						"1.0417": [29.23, 0, 0],
						"1.6667": [-3.81, 0, 0],
						"1.875": [22.86, 0, 0],
						"2.8333": [18.86, 0, 0]
					}
				},
				"body": {
					"position": {
						"0.0": [0, -3, 0],
						"0.7083": [0, -3, 0],
						"0.875": [0, -7.75, 0],
						"0.9167": [0, -8.75, 0],
						"0.9583": [0, -6.54, 0],
						"1.0417": [0, -9.02, 0],
						"1.125": [0, -7.84, 0],
						"1.2083": [0, -8.82, 0],
						"1.625": [0, -7.75, 0],
						"1.8333": [0, -14.25, 0],
						"1.875": [0, -16, 0],
						"1.9167": [0, -14, 0],
						"1.9583": [0, -16.25, 0],
						"2.0417": [0, -14.5, 0],
						"2.125": [0, -15.25, 0],
						"2.25": [0, -14.25, 0],
						"2.5833": [0, -14.75, 0]
					}
				},
				"leg_left": {
					"rotation": {
						"0.0": [-25, -32.5, 0],
						"0.7083": [-25, -32.5, 0],
						"0.7917": [-44, -32.5, 0],
						"0.9167": [17.68133, -12.23785, -19.97909],
						"1.625": [17.68133, -12.23785, -19.97909],
						"1.8333": [31.55631, -8.58043, -71.69987]
					},
					"position": {
						"0.0": [-1, 0, 0],
						"0.7083": [-1, 0, 0],
						"0.9167": [1.75, -2.25, -5]
					}
				},
				"leg_left2": {
					"rotation": {
						"0.0": [25, 0, 0],
						"0.7083": [25, 0, 0],
						"0.875": [72.5, 0, 0]
					}
				},
				"leg_right": {
					"rotation": {
						"0.0": [-25, 32.5, 0],
						"0.7083": [-25, 32.5, 0],
						"0.7917": [-44, 32.5, 0],
						"0.9167": [17.68133, 12.23785, 19.97909],
						"1.625": [17.68133, 12.23785, 19.97909],
						"1.8333": [31.55631, 8.58043, 71.69987]
					},
					"position": {
						"0.0": [1, 0, 0],
						"0.7083": [1, 0, 0],
						"0.9167": [-1.75, -2.25, -5]
					}
				},
				"leg_right2": {
					"rotation": {
						"0.0": [25, 0, 0],
						"0.7083": [25, 0, 0],
						"0.875": [72.5, 0, 0]
					}
				},
				"arm_right": {
					"rotation": {
						"0.0": [-3.22131, 4.5676, -44.09619],
						"0.5833": {
							"pre": [-10.60843, -6.34002, -26.97566],
							"post": [-10.60843, -6.34002, -26.97566],
							"lerp_mode": "catmullrom"
						},
						"0.9167": {
							"post": [-28.23365, 27.01159, -28.60549],
							"lerp_mode": "catmullrom"
						},
						"1.4167": {
							"post": [-27.26081, 25.62261, -35.49973],
							"lerp_mode": "catmullrom"
						},
						"1.7083": {
							"post": [-26.13749, 22.85921, -5.18018],
							"lerp_mode": "catmullrom"
						},
						"1.875": [7.1733, 9.28314, -32.86809]
					}
				},
				"arm_left": {
					"rotation": {
						"0.0": [-3.22131, -4.5676, 44.09619],
						"0.5833": {
							"pre": [-10.60843, 6.34002, 26.97566],
							"post": [-10.60843, 6.34002, 26.97566],
							"lerp_mode": "catmullrom"
						},
						"0.9167": {
							"post": [-28.23365, -27.01159, 28.60549],
							"lerp_mode": "catmullrom"
						},
						"1.4167": {
							"post": [-27.26081, -25.62261, 35.49973],
							"lerp_mode": "catmullrom"
						},
						"1.7083": {
							"post": [-26.13749, -22.85921, 5.18018],
							"lerp_mode": "catmullrom"
						},
						"1.875": [7.1733, -9.28314, 32.86809]
					}
				},
				"hand_left": {
					"rotation": {
						"0.0": [0, 12.5, -1.73205],
						"0.8333": [2.74715, 12.19908, 11.06157],
						"1.0": [-0.55404, 12.48791, -4.29267],
						"1.1667": [1.6575, 12.39135, 5.9479],
						"1.5833": [3.28396, 12.06754, 13.61516],
						"1.7917": [-6.32526, 10.80355, -32.33076],
						"1.9167": [-5.35254, 11.31255, -27.26256]
					}
				},
				"finger_left": {
					"rotation": [0, -65, 0],
					"position": [0, 0, 0.75]
				},
				"hand_right": {
					"rotation": {
						"0.0": [0, -12.5, 1.73205],
						"0.8333": [2.74715, -12.19908, -11.06157],
						"1.0": [-0.55404, -12.48791, 4.29267],
						"1.1667": [1.6575, -12.39135, -5.9479],
						"1.5833": [3.28396, -12.06754, -13.61516],
						"1.7917": [-6.32526, -10.80355, 32.33076],
						"1.9167": [-5.35254, -11.31255, 27.26256]
					}
				},
				"finger_right": {
					"rotation": [0, 65, 0],
					"position": [0, 0, 0.75]
				},
				"torso_closed": {
					"scale": {
						"0.0": [1, 1, 1],
						"0.25": [1, 1, 1],
						"0.2917": {"pre": [1, 1, 1], "post": [0.5, 0.5, 0.5]},
						"0.7083": {"pre": [0.5, 0.5, 0.5], "post": [0.5, 0.5, 0.5]},
						"0.75": {"pre": [0.5, 0.5, 0.5], "post": [1, 1, 1]},
						"1.4583": {"pre": [1, 1, 1], "post": [1, 1, 1]},
						"1.5": {"pre": [1, 1, 1], "post": [0.5, 0.5, 0.5]},
						"1.8333": {"pre": [0.5, 0.5, 0.5], "post": [0.5, 0.5, 0.5]},
						"1.875": {"pre": [0.5, 0.5, 0.5], "post": [1, 1, 1]}
					}
				},
				"eyelid_right": {
					"position": {
						"0.0": [0, 0, 0],
						"0.0417": [-0.1, 0, 0],
						"0.2917": [-0.1, 0, 0],
						"0.3333": [0, 0, 0],
						"0.875": [0, 0, 0],
						"0.9167": [-0.1, 0, 0],
						"1.0833": [-0.1, 0, 0],
						"1.125": [0, 0, 0],
						"1.5417": [0, 0, 0],
						"1.5833": [-0.1, 0, 0]
					}
				},
				"eyelid_left": {
					"position": {
						"0.0": [0, 0, 0],
						"0.0417": [0.1, 0, 0],
						"0.2917": [0.1, 0, 0],
						"0.3333": [0, 0, 0],
						"0.875": [0, 0, 0],
						"0.9167": [0.1, 0, 0],
						"1.0833": [0.1, 0, 0],
						"1.125": [0, 0, 0],
						"1.5417": [0, 0, 0],
						"1.5833": [0.1, 0, 0]
					}
				},
				"torso_open": {
					"scale": {
						"0.0": [0.5, 0.5, 0.5],
						"0.25": [0.5, 0.5, 0.5],
						"0.2917": {"pre": [0.5, 0.5, 0.5], "post": [1, 1, 1]},
						"0.7083": {"pre": [1, 1, 1], "post": [1, 1, 1]},
						"0.75": {"pre": [1, 1, 1], "post": [0.5, 0.5, 0.5]},
						"1.4583": {"pre": [0.5, 0.5, 0.5], "post": [0.5, 0.5, 0.5]},
						"1.5": {"pre": [0.5, 0.5, 0.5], "post": [1, 1, 1]},
						"1.8333": {"pre": [1, 1, 1], "post": [1, 1, 1]},
						"1.875": {"pre": [1, 1, 1], "post": [0.5, 0.5, 0.5]}
					}
				}
			}
		},
		"animation.cetitan.blink": {
			"animation_length": 0.16667,
			"bones": {
				"eyelid_right": {
					"position": {
						"0.0": [-0.1, 0, 0],
						"0.125": [-0.1, 0, 0],
						"0.1667": [0, 0, 0]
					}
				},
				"eyelid_left": {
					"position": {
						"0.0": [0.1, 0, 0],
						"0.125": [0.1, 0, 0],
						"0.1667": [0, 0, 0]
					}
				}
			}
		},
		"animation.cetitan.cry": {
			"animation_length": 3.25,
			"bones": {
				"torso": {
					"rotation": {
						"0.0": {
							"post": [0, 0, 0],
							"lerp_mode": "catmullrom"
						},
						"0.0833": {
							"post": [2.49962, 0.04362, -0.99905],
							"lerp_mode": "catmullrom"
						},
						"0.1667": {
							"post": [3.24926, 0.04457, -0.85957],
							"lerp_mode": "catmullrom"
						},
						"0.25": {
							"post": [1.75953, 0.04307, -0.63963],
							"lerp_mode": "catmullrom"
						},
						"0.2917": {
							"post": [2.21223, 0.04129, -0.39227],
							"lerp_mode": "catmullrom"
						},
						"0.375": {
							"post": [0.57148, 0.03935, -0.11396],
							"lerp_mode": "catmullrom"
						},
						"0.4167": {
							"post": [0.9155, 0.03721, 0.20493],
							"lerp_mode": "catmullrom"
						},
						"0.5": {
							"post": [-1.02377, 0.03483, 0.57467],
							"lerp_mode": "catmullrom"
						},
						"0.5833": {
							"post": [-1.58976, 0.02775, 0.99962],
							"lerp_mode": "catmullrom"
						},
						"1.0833": {
							"post": [-6.13, 0, 0],
							"lerp_mode": "catmullrom"
						},
						"1.5417": {
							"post": [5.05521, 0.22043, -2.49027],
							"lerp_mode": "catmullrom"
						},
						"2.0833": {
							"post": [-9, 0, 0],
							"lerp_mode": "catmullrom"
						},
						"3.2083": {
							"post": [0, 0, 0],
							"lerp_mode": "catmullrom"
						}
					}
				},
				"torso_closed": {
					"scale": {
						"0.0": [0.5, 0.5, 0.5],
						"1.0": [0.5, 0.5, 0.5],
						"1.0417": {"pre": [0.5, 0.5, 0.5], "post": [1, 1, 1]},
						"1.75": {"pre": [1, 1, 1], "post": [1, 1, 1]},
						"1.7917": {"pre": [1, 1, 1], "post": [0.5, 0.5, 0.5]},
						"3.0833": {"pre": [0.5, 0.5, 0.5], "post": [0.5, 0.5, 0.5]},
						"3.125": {"pre": [0.5, 0.5, 0.5], "post": [1, 1, 1]}
					}
				},
				"torso_open": {
					"scale": {
						"0.0": [1, 1, 1],
						"1.0": [1, 1, 1],
						"1.0417": {"pre": [1, 1, 1], "post": [0.5, 0.5, 0.5]},
						"1.75": {"pre": [0.5, 0.5, 0.5], "post": [0.5, 0.5, 0.5]},
						"1.7917": {"pre": [0.5, 0.5, 0.5], "post": [1, 1, 1]},
						"3.0833": {"pre": [1, 1, 1], "post": [1, 1, 1]},
						"3.125": {"pre": [1, 1, 1], "post": [0.5, 0.5, 0.5]}
					}
				},
				"tail": {
					"rotation": {
						"0.0": {
							"post": [0, 0, 0],
							"lerp_mode": "catmullrom"
						},
						"0.1667": {
							"post": [-2.5, 0, 0],
							"lerp_mode": "catmullrom"
						},
						"0.5": {
							"post": [2.5, 0, 0],
							"lerp_mode": "catmullrom"
						},
						"1.0833": {
							"post": [-2.58, 0, 0],
							"lerp_mode": "catmullrom"
						},
						"3.25": {
							"post": [0, 0, 0],
							"lerp_mode": "catmullrom"
						}
					}
				},
				"tail2": {
					"rotation": {
						"0.0": {
							"post": [0, 0, 0],
							"lerp_mode": "catmullrom"
						},
						"0.1667": {
							"post": [-5, 0, 0],
							"lerp_mode": "catmullrom"
						},
						"0.5833": {
							"post": [2.5, 0, 0],
							"lerp_mode": "catmullrom"
						},
						"1.1667": {
							"post": [-4.75, 0, 0],
							"lerp_mode": "catmullrom"
						},
						"1.75": {
							"post": [-1.66, 0, 0],
							"lerp_mode": "catmullrom"
						},
						"2.3333": {
							"post": [-15.83, 0, 0],
							"lerp_mode": "catmullrom"
						},
						"3.25": {
							"post": [0, 0, 0],
							"lerp_mode": "catmullrom"
						}
					}
				},
				"tail3": {
					"rotation": {
						"0.0": {
							"post": [0, 0, 0],
							"lerp_mode": "catmullrom"
						},
						"0.25": {
							"post": [-5, 0, 0],
							"lerp_mode": "catmullrom"
						},
						"0.625": {
							"post": [5, 0, 0],
							"lerp_mode": "catmullrom"
						},
						"1.25": {
							"post": [-7.29, 0, 0],
							"lerp_mode": "catmullrom"
						},
						"1.8333": {
							"post": [-3.88, 0, 0],
							"lerp_mode": "catmullrom"
						},
						"2.4583": {
							"post": [-14.89, 0, 0],
							"lerp_mode": "catmullrom"
						},
						"3.25": {
							"post": [0, 0, 0],
							"lerp_mode": "catmullrom"
						}
					}
				},
				"tail4": {
					"rotation": {
						"0.0": {
							"post": [0, 0, 0],
							"lerp_mode": "catmullrom"
						},
						"0.375": {
							"post": [5, 0, 0],
							"lerp_mode": "catmullrom"
						},
						"0.75": {
							"post": [25, 0, 0],
							"lerp_mode": "catmullrom"
						},
						"1.3333": {
							"post": [-14.83, 0, 0],
							"lerp_mode": "catmullrom"
						},
						"2.0417": {
							"post": [1.45, 0, 0],
							"lerp_mode": "catmullrom"
						},
						"2.5833": {
							"post": [-15.82, 0, 0],
							"lerp_mode": "catmullrom"
						},
						"3.25": {
							"post": [0, 0, 0],
							"lerp_mode": "catmullrom"
						}
					}
				},
				"tail5": {
					"rotation": {
						"0.0": {
							"post": [0, 0, 0],
							"lerp_mode": "catmullrom"
						},
						"0.25": {
							"post": [-7.5, 0, 0],
							"lerp_mode": "catmullrom"
						},
						"0.5417": {
							"post": [-23.86, 0, 0],
							"lerp_mode": "catmullrom"
						},
						"0.9583": {
							"post": [7.5, 0, 0],
							"lerp_mode": "catmullrom"
						},
						"1.4167": {
							"post": [-12.5, 0, 0],
							"lerp_mode": "catmullrom"
						},
						"2.2083": {
							"post": [0, 0, 0],
							"lerp_mode": "catmullrom"
						},
						"2.5417": {
							"post": [-12.5, 0, 0],
							"lerp_mode": "catmullrom"
						},
						"2.875": {
							"post": [-27.5, 0, 0],
							"lerp_mode": "catmullrom"
						},
						"3.25": {
							"post": [0, 0, 0],
							"lerp_mode": "catmullrom"
						}
					}
				}
			},
			"sound_effects": {
				"0.0": {
					"effect": "pokemon.cetitan.cry"
				}
			}
		}
	}
}