{
	"implemented": true,
	"name": "Gorebyss",
	"nationalPokedexNumber": 368,
	"primaryType": "water",
	"abilities": [
	  "swiftswim",
	  "h:hydration"
	],
	"baseStats": {
	  "hp": 55,
	  "attack": 84,
	  "defence": 105,
	  "special_attack": 114,
	  "special_defence": 75,
	  "speed": 52
	},
	"catchRate": 60,
	"maleRatio": 0.5,
	"shoulderMountable": false,
	"baseExperienceYield": 170,
	"experienceGroup": "erratic",
	"eggCycles": 20,
	"eggGroups": [
	  "water_1"
	],
	"behaviour": {
		"moving": {
		  "walk": {
			"canWalk": true,
			"avoidsLand": true
		  },
		  "swim": {
			"canSwimInWater": true,
			"canBreatheUnderwater": true
		  }
		}
	  },
	"moves": [
	  "1:whirlpool",
	  "5:watersport",
	  "8:confusion",
	  "11:drainingkiss",
	  "15:agility",
	  "22:waterpulse",
	  "24:aquaring",
	  "28:captivate",
	  "29:amnesia",
	  "36:psychic",
	  "37:dive",
	  "43:batonpass",
	  "45:coil",
	  "46:aquatail",
	  "50:hydropump",
	  "tm:attract",
	  "tm:blizzard",
	  "tm:brine",
	  "tm:captivate",
	  "tm:confide",
	  "tm:dive",
	  "tm:doubleteam",
	  "tm:endure",
	  "tm:facade",
	  "tm:frustration",
	  "tm:gigaimpact",
	  "tm:hail",
	  "tm:hiddenpower",
	  "tm:hyperbeam",
	  "tm:icebeam",
	  "tm:infestation",
	  "tm:naturalgift",
	  "tm:protect",
	  "tm:psychic",
	  "tm:psychup",
	  "tm:raindance",
	  "tm:rest",
	  "tm:return",
	  "tm:round",
	  "tm:safeguard",
	  "tm:scald",
	  "tm:secretpower",
	  "tm:shadowball",
	  "tm:sleeptalk",
	  "tm:substitute",
	  "tm:surf",
	  "tm:swagger",
	  "tm:toxic",
	  "tm:waterfall",
	  "tm:waterpulse",
	  "tm:whirlpool",
	  "tutor:aquatail",
	  "tutor:bind",
	  "tutor:bodyslam",
	  "tutor:bounce",
	  "tutor:dive",
	  "tutor:doubleedge",
	  "tutor:endure",
	  "tutor:icywind",
	  "tutor:mimic",
	  "tutor:mudslap",
	  "tutor:signalbeam",
	  "tutor:sleeptalk",
	  "tutor:snore",
	  "tutor:substitute",
	  "tutor:swagger",
	  "tutor:swift",
	  "tutor:waterpulse"
	],
	"labels": [
	  "gen3"
	],
	"pokedex": [
	  "cobblemon.species.gorebyss.desc"
	],
	"preEvolution": "clamperl",
	"evolutions": [],
	"baseScale": 1,
	"hitbox": {
	  "width": 1,
	  "height": 1,
	  "fixed": false
	},
	"baseFriendship": 70,
	"evYield": {
	  "hp": 0,
	  "attack": 0,
	  "defence": 0,
	  "special_attack": 2,
	  "special_defence": 0,
	  "speed": 0
	},
	"height": 18,
	"weight": 226,
	"aspects": [],
	"cannotDynamax": false
  }
