{
  "implemented": true,
  "name": "Spinda",
  "nationalPokedexNumber": 327,
  "primaryType": "normal",
  "abilities": [
    "owntempo",
    "tangledfeet",
    "h:contrary"
  ],
  "baseStats": {
    "hp": 60,
    "attack": 60,
    "defence": 60,
    "special_attack": 60,
    "special_defence": 60,
    "speed": 60
  },
  "catchRate": 255,
  "maleRatio": 0.5,
  "shoulderMountable": false,
  "baseExperienceYield": 126,
  "experienceGroup": "fast",
  "eggCycles": 15,
  "eggGroups": [
    "field",
    "human_like"
  ],
  "drops": {
    "amount": "1",
    "entries": [
      {
        "item": "minecraft:bamboo",
        "quantityRange": "1-2",
        "percentage": 66
      }
    ]
  },
  "moves": [
    "1:tackle",
    "5:copycat",
    "10:feintattack",
    "14:psybeam",
    "19:hypnosis",
    "23:dizzypunch",
    "28:suckerpunch",
    "32:teeterdance",
    "37:uproar",
    "41:psychup",
    "46:doubleedge",
    "50:flail",
    "55:thrash",
    "egg:assist",
    "egg:batonpass",
    "egg:disable",
    "egg:encore",
    "egg:fakeout",
    "egg:faketears",
    "egg:guardsplit",
    "egg:icywind",
    "egg:psychocut",
    "egg:psychoshift",
    "egg:rapidspin",
    "egg:rockslide",
    "egg:roleplay",
    "egg:smellingsalts",
    "egg:spotlight",
    "egg:trick",
    "egg:waterpulse",
    "egg:wish",
    "tm:attract",
    "tm:brickbreak",
    "tm:calmmind",
    "tm:captivate",
    "tm:confide",
    "tm:dig",
    "tm:doubleteam",
    "tm:drainpunch",
    "tm:dreameater",
    "tm:endure",
    "tm:facade",
    "tm:flash",
    "tm:fling",
    "tm:focuspunch",
    "tm:frustration",
    "tm:hiddenpower",
    "tm:naturalgift",
    "tm:poweruppunch",
    "tm:protect",
    "tm:psychic",
    "tm:psychup",
    "tm:raindance",
    "tm:recycle",
    "tm:rest",
    "tm:retaliate",
    "tm:return",
    "tm:rockslide",
    "tm:rocksmash",
    "tm:rocktomb",
    "tm:round",
    "tm:safeguard",
    "tm:secretpower",
    "tm:shadowball",
    "tm:shockwave",
    "tm:skillswap",
    "tm:sleeptalk",
    "tm:snatch",
    "tm:strength",
    "tm:substitute",
    "tm:sunnyday",
    "tm:swagger",
    "tm:thief",
    "tm:toxic",
    "tm:trickroom",
    "tm:waterpulse",
    "tm:wildcharge",
    "tm:workup",
    "tutor:bodyslam",
    "tutor:copycat",
    "tutor:counter",
    "tutor:covet",
    "tutor:defensecurl",
    "tutor:doubleedge",
    "tutor:drainpunch",
    "tutor:dreameater",
    "tutor:dynamicpunch",
    "tutor:endure",
    "tutor:fakeout",
    "tutor:firepunch",
    "tutor:focuspunch",
    "tutor:headbutt",
    "tutor:helpinghand",
    "tutor:hypervoice",
    "tutor:icepunch",
    "tutor:icywind",
    "tutor:lastresort",
    "tutor:lowkick",
    "tutor:megakick",
    "tutor:megapunch",
    "tutor:metronome",
    "tutor:mimic",
    "tutor:mudslap",
    "tutor:nightmare",
    "tutor:psychup",
    "tutor:recycle",
    "tutor:rockslide",
    "tutor:roleplay",
    "tutor:rollout",
    "tutor:seismictoss",
    "tutor:shockwave",
    "tutor:sing",
    "tutor:skillswap",
    "tutor:sleeptalk",
    "tutor:snatch",
    "tutor:snore",
    "tutor:stompingtantrum",
    "tutor:substitute",
    "tutor:suckerpunch",
    "tutor:superpower",
    "tutor:swagger",
    "tutor:swift",
    "tutor:tackle",
    "tutor:thunderpunch",
    "tutor:trick",
    "tutor:uproar",
    "tutor:waterpulse",
    "tutor:zenheadbutt"
  ],
  "labels": [
    "gen3"
  ],
  "pokedex": [
    "cobblemon.species.spinda.desc"
  ],
  "evolutions": [],
  "baseScale": 0.9,
  "hitbox": {
    "width": 0.7,
    "height": 1.4,
    "fixed": false
  },
  "baseFriendship": 70,
  "evYield": {
    "hp": 0,
    "attack": 0,
    "defence": 0,
    "special_attack": 1,
    "special_defence": 0,
    "speed": 0
  },
  "height": 11,
  "weight": 50,
  "aspects": [],
  "cannotDynamax": false
}